<?xml version="1.0" encoding="UTF-8" standalone="no"?>
<!-- Created with Inkscape (http://www.inkscape.org/) -->

<svg
   xmlns:dc="http://purl.org/dc/elements/1.1/"
   xmlns:cc="http://creativecommons.org/ns#"
   xmlns:rdf="http://www.w3.org/1999/02/22-rdf-syntax-ns#"
   xmlns:svg="http://www.w3.org/2000/svg"
   xmlns="http://www.w3.org/2000/svg"
   xmlns:sodipodi="http://sodipodi.sourceforge.net/DTD/sodipodi-0.dtd"
   xmlns:inkscape="http://www.inkscape.org/namespaces/inkscape"
   width="39.604359mm"
   height="16.118643mm"
   viewBox="0 0 39.604359 16.118643"
   version="1.1"
   id="svg8"
   inkscape:version="0.92.2 (5c3e80d, 2017-08-06)"
   sodipodi:docname="motohubcar.svg">
  <defs
     id="defs2" />
  <sodipodi:namedview
     id="base"
     pagecolor="#ffffff"
     bordercolor="#666666"
     borderopacity="1.0"
     inkscape:pageopacity="0.0"
     inkscape:pageshadow="2"
     inkscape:zoom="11.2"
     inkscape:cx="69.801791"
     inkscape:cy="10.319175"
     inkscape:document-units="mm"
     inkscape:current-layer="layer1"
     showgrid="false"
     inkscape:window-width="3000"
     inkscape:window-height="1875"
     inkscape:window-x="-13"
     inkscape:window-y="-13"
     inkscape:window-maximized="1" />
  <metadata
     id="metadata5">
    <rdf:RDF>
      <cc:Work
         rdf:about="">
        <dc:format>image/svg+xml</dc:format>
        <dc:type
           rdf:resource="http://purl.org/dc/dcmitype/StillImage" />
        <dc:title />
      </cc:Work>
    </rdf:RDF>
  </metadata>
  <g
     inkscape:groupmode="layer"
     id="layer2"
     inkscape:label="Layer 2"
     style="display:inline"
     transform="translate(-54.658023,-59.117218)">
    <rect
       style="opacity:1;fill:#21c2f8;fill-opacity:1;stroke:none;stroke-width:0.21871179"
       id="rect826"
       width="21.636497"
       height="8.5035963"
       x="68.926384"
       y="64.700081" />
    <path
       style="opacity:1;fill:#21c2f8;fill-opacity:1;stroke:none;stroke-width:0.45822793"
       id="path828"
       sodipodi:type="arc"
       sodipodi:cx="42.638165"
       sodipodi:cy="82.482704"
       sodipodi:rx="9.9568129"
       sodipodi:ry="8.9605379"
       sodipodi:start="3.2637657"
       sodipodi:end="4.9445178"
       d="m 32.755568,81.390689 a 9.9568129,8.9605379 0 0 1 4.192976,-6.261458 9.9568129,8.9605379 0 0 1 7.980183,-1.366733 l -2.290562,8.720206 z"
       transform="matrix(0.99507701,-0.09910469,0.34554599,0.93840182,0,0)" />
    <path
       style="display:inline;opacity:1;fill:#21c2f8;fill-opacity:1;stroke:none;stroke-width:0.29510522"
       id="path828-5"
       sodipodi:type="arc"
       sodipodi:cx="-114.17429"
       sodipodi:cy="38.124386"
       sodipodi:rx="5.5927844"
       sodipodi:ry="9.7093954"
       sodipodi:start="3.3772121"
       sodipodi:end="0.2268928"
       d="m -119.61255,35.857773 a 5.5927844,9.7093954 0 0 1 6.72012,-7.184311 5.5927844,9.7093954 0 0 1 4.16758,11.635063 l -5.44944,-2.184139 z"
       transform="matrix(-0.93462417,-0.35563698,-0.5165066,0.85628321,0,0)" />
    <path
       style="fill:none;stroke:#21c2f8;stroke-width:2.9000001;stroke-linecap:butt;stroke-linejoin:miter;stroke-miterlimit:4;stroke-dasharray:none;stroke-opacity:1"
       d="m 78.822791,66.632584 1.194221,-6.912657"
       id="path4867"
       inkscape:connector-curvature="0" />
  </g>
  <g
     inkscape:label="Layer 1"
     inkscape:groupmode="layer"
     id="layer1"
     style="display:inline"
     transform="translate(-54.658023,-59.117218)">
    <g
       aria-label="o   o"
       style="font-style:normal;font-variant:normal;font-weight:normal;font-stretch:normal;font-size:16.93333244px;line-height:1.25;font-family:'Faster One';-inkscape-font-specification:'Faster One';letter-spacing:0px;word-spacing:0px;fill:#000000;fill-opacity:1;stroke:none;stroke-width:0.26458332"
       id="text817">
      <path
         d="m 66.782289,65.905595 q 1.8288,0 2.607734,0.7112 0.778933,0.694267 0.778933,2.1844 0,0.728133 -0.186267,1.761067 -0.423333,2.4384 -1.490133,3.555999 -1.0668,1.1176 -3.3528,1.1176 -1.794933,0 -2.556933,-0.694266 -0.762,-0.7112 -0.762,-2.1844 0,-0.762 0.186267,-1.794933 0.423333,-2.4384 1.4732,-3.539067 1.049866,-1.1176 3.301999,-1.1176 z m -1.151466,6.7564 q 0.491067,0 0.728133,-0.118533 0.254,-0.118534 0.338667,-0.524934 l 0.643466,-3.539066 h -1.032933 q -0.474133,0 -0.745066,0.118533 -0.254,0.118533 -0.3048,0.508 l -0.626534,3.556 z m -4.2164,-1.710267 q -0.06773,0.524934 -0.08467,0.7112 l -6.671733,-0.7112 z m 0.321733,-1.6256 -0.1524,0.7112 -6.620933,-0.7112 z m -0.423333,3.2512 q 0,0.270934 0.06773,0.7112 l -6.654799,-0.7112 z m 1.016,-4.8768 q -0.2032,0.440267 -0.287867,0.677334 l -6.400799,-0.677334 z m -0.6604,6.519333 q 0.2032,0.4064 0.440267,0.626534 l -5.909733,-0.626534 z m 2.1336,-8.144932 q -0.4064,0.237066 -0.694267,0.5588 l -5.198533,-0.5588 z"
         style="stroke-width:0.26458332"
         id="path833" />
      <path
         d="m 89.767965,65.905595 q 1.8288,0 2.607733,0.7112 0.778934,0.694267 0.778934,2.1844 0,0.728133 -0.186267,1.761067 -0.423333,2.4384 -1.490133,3.555999 -1.0668,1.1176 -3.3528,1.1176 -1.794933,0 -2.556933,-0.694266 -0.762,-0.7112 -0.762,-2.1844 0,-0.762 0.186267,-1.794933 0.423333,-2.4384 1.473199,-3.539067 1.049867,-1.1176 3.302,-1.1176 z m -1.151466,6.7564 q 0.491066,0 0.728133,-0.118533 0.254,-0.118534 0.338667,-0.524934 l 0.643466,-3.539066 h -1.032933 q -0.474133,0 -0.745067,0.118533 -0.254,0.118533 -0.3048,0.508 l -0.626533,3.556 z m -4.2164,-1.710267 q -0.06773,0.524934 -0.08467,0.7112 l -6.671733,-0.7112 z m 0.321733,-1.6256 -0.1524,0.7112 -6.620933,-0.7112 z m -0.423333,3.2512 q 0,0.270934 0.06773,0.7112 l -6.654799,-0.7112 z m 1.016,-4.8768 q -0.2032,0.440267 -0.287867,0.677334 l -6.400799,-0.677334 z m -0.6604,6.519333 q 0.2032,0.4064 0.440267,0.626534 l -5.909733,-0.626534 z m 2.1336,-8.144932 q -0.4064,0.237066 -0.694267,0.5588 l -5.198533,-0.5588 z"
         style="stroke-width:0.26458332"
         id="path835" />
    </g>
  </g>
  <g
     inkscape:groupmode="layer"
     id="layer3"
     inkscape:label="Layer 3"
     style="display:none"
     transform="translate(-54.658023,-59.117218)">
    <path
       id="text929"
       style="font-style:normal;font-variant:normal;font-weight:normal;font-stretch:normal;font-size:16.93333244px;line-height:1.25;font-family:'Faster One';-inkscape-font-specification:'Faster One';letter-spacing:0px;word-spacing:0px;display:inline;fill:#000000;fill-opacity:1;stroke:none;stroke-width:0.26458332"
       d="m 83.470322,66.160443 -0.457337,2.539897 h 1.879988 l -1.117761,6.417696 h 2.980179 l 1.117762,-6.417696 h 1.828829 l 0.456819,-2.539897 z"
       inkscape:connector-curvature="0" />
    <text
       xml:space="preserve"
       style="font-style:normal;font-variant:normal;font-weight:normal;font-stretch:normal;font-size:16.93333244px;line-height:1.25;font-family:'Faster One';-inkscape-font-specification:'Faster One';letter-spacing:0px;word-spacing:0px;fill:#000000;fill-opacity:1;stroke:none;stroke-width:0.26458332"
       x="49.010548"
       y="55.789249"
       id="text4893"><tspan
         sodipodi:role="line"
         id="tspan4891"
         x="49.010548"
         y="72.210838"
         style="stroke-width:0.26458332" /></text>
  </g>
  <g
     inkscape:groupmode="layer"
     id="layer4"
     inkscape:label="Layer 4"
     style="display:inline"
     transform="translate(-54.658023,-59.117218)">
    <path
       style="display:inline;opacity:1;fill:none;fill-opacity:1;stroke:#21c2f8;stroke-width:1.05288672;stroke-miterlimit:4;stroke-dasharray:none;stroke-opacity:1"
       id="path4832"
       sodipodi:type="arc"
       sodipodi:cx="103.21741"
       sodipodi:cy="70.979965"
       sodipodi:rx="11.144741"
       sodipodi:ry="6.8541594"
       sodipodi:start="3.2480577"
       sodipodi:end="6.1784656"
       d="m 92.135768,70.251615 a 11.144741,6.8541594 0 0 1 11.091362,-6.125807 11.144741,6.8541594 0 0 1 11.07397,6.137703"
       sodipodi:open="true"
       transform="matrix(1,0,-0.36875828,0.92952532,0,0)" />
  </g>
</svg>
