<?xml version="1.0" encoding="UTF-8" standalone="no"?>
<svg
   xmlns:dc="http://purl.org/dc/elements/1.1/"
   xmlns:cc="http://creativecommons.org/ns#"
   xmlns:rdf="http://www.w3.org/1999/02/22-rdf-syntax-ns#"
   xmlns:svg="http://www.w3.org/2000/svg"
   xmlns="http://www.w3.org/2000/svg"
   xmlns:sodipodi="http://sodipodi.sourceforge.net/DTD/sodipodi-0.dtd"
   xmlns:inkscape="http://www.inkscape.org/namespaces/inkscape"
   id="svg8"
   version="1.1"
   viewBox="0 0 95.982895 16.118643"
   height="16.118643mm"
   width="95.982895mm"
   sodipodi:docname="motohublogo.svg"
   inkscape:version="0.92.2 (5c3e80d, 2017-08-06)">
  <sodipodi:namedview
     pagecolor="#ffffff"
     bordercolor="#666666"
     borderopacity="1"
     objecttolerance="10"
     gridtolerance="10"
     guidetolerance="10"
     inkscape:pageopacity="0"
     inkscape:pageshadow="2"
     inkscape:window-width="3000"
     inkscape:window-height="1875"
     id="namedview855"
     showgrid="false"
     inkscape:zoom="6.2077901"
     inkscape:cx="127.26969"
     inkscape:cy="47.916887"
     inkscape:window-x="-13"
     inkscape:window-y="-13"
     inkscape:window-maximized="1"
     inkscape:current-layer="svg8" />
  <defs
     id="defs2" />
  <metadata
     id="metadata5">
    <rdf:RDF>
      <cc:Work
         rdf:about="">
        <dc:format>image/svg+xml</dc:format>
        <dc:type
           rdf:resource="http://purl.org/dc/dcmitype/StillImage" />
        <dc:title />
      </cc:Work>
    </rdf:RDF>
  </metadata>
  <g
     transform="translate(-46.280606,-59.117218)"
     style="display:inline"
     id="layer2">
    <rect
       y="64.700081"
       x="78.451393"
       height="8.5035963"
       width="21.636497"
       id="rect826"
       style="opacity:1;fill:#21c2f8;fill-opacity:1;stroke:none;stroke-width:0.21871179" />
    <path
       transform="matrix(0.99507701,-0.09910469,0.34554599,0.93840182,0,0)"
       d="m 41.989096,82.365863 a 9.9568129,8.9605379 0 0 1 4.192976,-6.261458 9.9568129,8.9605379 0 0 1 7.980183,-1.366733 l -2.290562,8.720206 z"
       id="path828"
       style="opacity:1;fill:#21c2f8;fill-opacity:1;stroke:none;stroke-width:0.45822793" />
    <path
       transform="matrix(-0.93462417,-0.35563698,-0.5165066,0.85628321,0,0)"
       d="m -127.9013,32.415207 a 5.5927844,9.7093954 0 0 1 6.72013,-7.184311 5.5927844,9.7093954 0 0 1 4.16757,11.635063 l -5.44944,-2.184139 z"
       id="path828-5"
       style="display:inline;opacity:1;fill:#21c2f8;fill-opacity:1;stroke:none;stroke-width:0.29510522" />
    <path
       id="path4867"
       d="m 88.347797,66.632584 1.194221,-6.912657"
       style="fill:none;stroke:#21c2f8;stroke-width:2.9000001;stroke-linecap:butt;stroke-linejoin:miter;stroke-miterlimit:4;stroke-dasharray:none;stroke-opacity:1" />
  </g>
  <g
     transform="translate(-46.280606,-59.117218)"
     style="display:inline"
     id="layer1">
    <g
       aria-label="MotoHub"
       style="font-style:normal;font-variant:normal;font-weight:normal;font-stretch:normal;font-size:16.93333244px;line-height:1.25;font-family:'Faster One';-inkscape-font-specification:'Faster One';letter-spacing:0px;word-spacing:0px;fill:#000000;fill-opacity:1;stroke:none;stroke-width:0.26458332"
       id="text817">
      <path
         d="m 53.426472,74.981861 -7.145866,-0.762 h 7.315199 z m 0.372533,-1.642533 -7.128933,-0.762 h 7.3152 z m 0.389467,-1.6256 -7.128933,-0.762 h 7.298266 z m 0.372533,-1.6256 -7.111999,-0.762 h 7.298266 z m 0.389467,-1.6256 -7.112,-0.762 h 7.281333 z m 0.372533,-1.625599 -7.095066,-0.762 h 7.281333 z m 0.389467,-1.6256 -7.095066,-0.762 h 7.264399 z m 1.5748,9.821332 h -3.3528 l 2.472267,-10.583332 h 4.199466 l 0.3048,5.384799 h 0.118533 l 2.201334,-5.384799 h 4.199466 l -1.253067,10.583332 h -3.369733 l 0.7112,-5.130799 h -0.118533 l -2.116667,5.130799 h -2.455333 l -0.3556,-5.130799 h -0.08467 z"
         style="stroke-width:0.26458332"
         id="path1400" />
      <path
         d="m 76.463213,65.905595 q 1.8288,0 2.607733,0.7112 0.778933,0.694267 0.778933,2.1844 0,0.728133 -0.186266,1.761067 -0.423334,2.4384 -1.490133,3.555999 -1.0668,1.1176 -3.3528,1.1176 -1.794934,0 -2.556934,-0.694266 -0.761999,-0.7112 -0.761999,-2.1844 0,-0.762 0.186266,-1.794933 0.423334,-2.4384 1.4732,-3.539067 1.049867,-1.1176 3.302,-1.1176 z m -1.151467,6.7564 q 0.491067,0 0.728134,-0.118533 0.254,-0.118534 0.338666,-0.524934 l 0.643467,-3.539066 H 75.98908 q -0.474134,0 -0.745067,0.118533 -0.254,0.118533 -0.3048,0.508 l -0.626533,3.556 z m -4.216399,-1.710267 q -0.06773,0.524934 -0.08467,0.7112 l -6.671733,-0.7112 z m 0.321733,-1.6256 -0.1524,0.7112 -6.620933,-0.7112 z m -0.423333,3.2512 q 0,0.270934 0.06773,0.7112 l -6.6548,-0.7112 z m 1.016,-4.8768 q -0.2032,0.440267 -0.287867,0.677334 l -6.4008,-0.677334 z m -0.6604,6.519333 q 0.2032,0.4064 0.440266,0.626534 L 65.87988,74.219861 Z m 2.133599,-8.144932 q -0.4064,0.237066 -0.694266,0.5588 l -5.198533,-0.5588 z"
         style="stroke-width:0.26458332"
         id="path1402" />
      <path
         d="m 91.32671,68.614928 h -1.8288 l -1.1176,6.417733 h -2.980266 l 1.1176,-6.417733 h -1.8796 l 0.4572,-2.539999 h 6.688666 z m -6.434666,6.366933 -7.179733,-0.762 h 7.3152 z m 0.575733,-3.268133 -7.179733,-0.762 h 7.3152 z m 0.287867,-1.6256 -7.179733,-0.762 h 7.3152 z m -1.6256,-1.6256 -7.179733,-0.762 h 7.3152 z m 0.287867,-1.625599 -7.179733,-0.762 h 7.298266 z m 0.762,6.502399 -7.179733,-0.762 h 7.315199 z"
         style="stroke-width:0.26458332"
         id="path1404" />
      <path
         d="m 99.878836,65.905595 q 1.828804,0 2.607734,0.7112 0.77893,0.694267 0.77893,2.1844 0,0.728133 -0.18626,1.761067 -0.42334,2.4384 -1.49014,3.555999 -1.0668,1.1176 -3.352798,1.1176 -1.794933,0 -2.556933,-0.694266 -0.762,-0.7112 -0.762,-2.1844 0,-0.762 0.186267,-1.794933 0.423333,-2.4384 1.4732,-3.539067 1.049866,-1.1176 3.302,-1.1176 z m -1.151467,6.7564 q 0.491067,0 0.728133,-0.118533 0.254,-0.118534 0.338667,-0.524934 l 0.643471,-3.539066 h -1.032938 q -0.474133,0 -0.745066,0.118533 -0.254,0.118533 -0.3048,0.508 l -0.626534,3.556 z m -4.2164,-1.710267 q -0.06773,0.524934 -0.08467,0.7112 l -6.671733,-0.7112 z m 0.321734,-1.6256 -0.1524,0.7112 -6.620933,-0.7112 z m -0.423334,3.2512 q 0,0.270934 0.06773,0.7112 l -6.6548,-0.7112 z m 1.016,-4.8768 q -0.2032,0.440267 -0.287866,0.677334 l -6.4008,-0.677334 z m -0.6604,6.519333 q 0.2032,0.4064 0.440267,0.626534 l -5.909733,-0.626534 z m 2.1336,-8.144932 q -0.4064,0.237066 -0.694266,0.5588 l -5.198534,-0.5588 z"
         style="stroke-width:0.26458332"
         id="path1406" />
      <path
         d="m 113.21833,75.032661 0.64347,-3.742266 h -2.42147 l -0.64346,3.742266 h -3.21734 l 1.86267,-10.583332 h 3.21733 l -0.6604,3.742266 h 2.42147 l 0.6604,-3.742266 h 3.21733 l -1.86266,10.583332 z m -6.1468,-0.0508 -7.17973,-0.762 h 7.3152 z m 0.57574,-3.268133 -7.17974,-0.762 h 7.3152 z m 0.28786,-1.6256 -7.17973,-0.762 h 7.3152 z m 0.28787,-1.6256 -7.17973,-0.762 h 7.3152 z m 0.28787,-1.625599 -7.17974,-0.762 h 7.29827 z m -1.15147,6.502399 -7.17973,-0.762 h 7.3152 z m 1.4224,-8.127999 -7.1628,-0.762 h 7.29827 z"
         style="stroke-width:0.26458332"
         id="path1408" />
      <path
         d="m 121.91704,71.713728 -7.17973,-0.762 h 7.3152 z m 0.28787,-1.6256 -7.17973,-0.762 h 7.3152 z m 0.28787,-1.6256 -7.17974,-0.762 h 7.3152 z m 0.28786,-1.625599 -7.17973,-0.762 h 7.29827 z m -0.93133,5.740399 v 0.338667 q 0,0.287867 0.0169,0.423333 l -7.17973,-0.762 z m 0.6604,2.404533 -7.17973,-0.762 h 6.68866 q 0.18627,0.474134 0.49107,0.762 z m 3.47133,-2.319866 q 0.4572,0 0.62654,-0.1016 0.18626,-0.118533 0.254,-0.541867 l 1.0668,-5.943599 h 2.8448 l -0.88054,5.046133 q -0.4064,2.370666 -1.3208,3.251199 -0.89746,0.8636 -3.08186,0.8636 -1.74414,0 -2.4384,-0.508 -0.69427,-0.524933 -0.69427,-1.811866 0,-0.7112 0.18627,-1.794933 l 0.89746,-5.046133 h 2.8448 l -1.15146,6.587066 z"
         style="stroke-width:0.26458332"
         id="path1410" />
      <path
         d="m 140.3331,66.074929 q 1.9304,0 1.9304,1.591733 0,0.880533 -0.42333,1.591733 -0.4064,0.7112 -0.99907,0.982133 l -0.0169,0.1016 q 1.1176,0.3556 1.1176,1.540934 0,1.490133 -0.8128,2.319866 -0.79587,0.829733 -2.42147,0.829733 h -4.50427 l 1.55787,-8.957732 z m -1.6256,5.486399 h -1.04987 l -0.22013,1.253067 h 1.04987 q 0.59266,0 0.59266,-0.8636 0,-0.389467 -0.37253,-0.389467 z m 0.44027,-3.335866 h -0.9144 l -0.18627,1.083733 h 0.93133 q 0.508,0 0.508,-0.745067 0,-0.338666 -0.33866,-0.338666 z m -5.4864,6.756399 -7.17974,-0.762 h 7.3152 z m 0.57573,-3.268133 -7.17973,-0.762 h 7.3152 z m 0.28787,-1.6256 -7.17974,-0.762 h 7.3152 z m 0.28786,-1.6256 -7.17973,-0.762 h 7.3152 z m 0.28787,-1.625599 -7.17973,-0.762 h 7.29826 z m -1.15147,6.502399 -7.17973,-0.762 h 7.3152 z"
         style="stroke-width:0.26458332"
         id="path1412" />
    </g>
  </g>
  <g
     transform="translate(-46.280606,-59.117218)"
     style="display:none"
     id="layer3">
    <path
       d="m 83.470322,66.160443 -0.457337,2.539897 h 1.879988 l -1.117761,6.417696 h 2.980179 l 1.117762,-6.417696 h 1.828829 l 0.456819,-2.539897 z"
       style="font-style:normal;font-variant:normal;font-weight:normal;font-stretch:normal;font-size:16.93333244px;line-height:1.25;font-family:'Faster One';-inkscape-font-specification:'Faster One';letter-spacing:0px;word-spacing:0px;display:inline;fill:#000000;fill-opacity:1;stroke:none;stroke-width:0.26458332"
       id="text929" />
    <text
       id="text4893"
       y="55.789249"
       x="49.010548"
       style="font-style:normal;font-variant:normal;font-weight:normal;font-stretch:normal;font-size:16.93333244px;line-height:1.25;font-family:'Faster One';-inkscape-font-specification:'Faster One';letter-spacing:0px;word-spacing:0px;fill:#000000;fill-opacity:1;stroke:none;stroke-width:0.26458332"
       xml:space="preserve"><tspan
         style="stroke-width:0.26458332"
         y="72.210838"
         x="49.010548"
         id="tspan4891" /></text>
  </g>
  <g
     transform="translate(-46.280606,-59.117218)"
     style="display:inline"
     id="layer4">
    <path
       transform="matrix(1,0,-0.36875828,0.92952532,0,0)"
       d="m 101.66075,70.251615 a 11.144741,6.8541594 0 0 1 11.09137,-6.125807 11.144741,6.8541594 0 0 1 11.07396,6.137703"
       id="path4832"
       style="display:inline;opacity:1;fill:none;fill-opacity:1;stroke:#21c2f8;stroke-width:1.05288672;stroke-miterlimit:4;stroke-dasharray:none;stroke-opacity:1" />
  </g>
</svg>
